…
## Анализ данныз

### Шаг 1. Определить небезопасные точки доступа (без шифрования – OPN)

``` r
AP_nOPN <- access_points %>% filter(str_detect(toupper(Privacy), "OPN")) %>% select(BSSID, ESSID)
AP_nOPN
```

    # A tibble: 42 × 2
       BSSID             ESSID        
       <chr>             <chr>        
     1 E8:28:C1:DC:B2:52 MIREA_HOTSPOT
     2 E8:28:C1:DC:B2:50 MIREA_GUESTS 
     3 E8:28:C1:DC:B2:51 <NA>         
     4 E8:28:C1:DC:FF:F2 <NA>         
     5 00:25:00:FF:94:73 <NA>         
     6 E8:28:C1:DD:04:52 MIREA_HOTSPOT
     7 E8:28:C1:DE:74:31 <NA>         
     8 E8:28:C1:DE:74:32 MIREA_HOTSPOT
     9 E8:28:C1:DC:C8:32 MIREA_HOTSPOT
    10 E8:28:C1:DD:04:50 MIREA_GUESTS 
    # ℹ 32 more rows
…
if(nrow(devices_real_mac) > 0) {
  devices_real_mac

} 
```

    # A tibble: 217 × 4
       `Station MAC`     BSSID             `Probed ESSIDs`         Power
       <chr>             <chr>             <chr>                   <dbl>
     1 5C:3A:45:9E:1A:7B BE:F1:71:D6:10:D7 C322U21 0566              -39
     2 C0:E4:34:D8:E7:E5 BE:F1:71:D5:17:8B C322U13 3965              -61
     3 10:51:07:CB:33:E7 (not associated)  <NA>                      -43
     4 68:54:5A:40:35:9E 1E:93:E3:1B:3C:F4 C322U06 5179,Galaxy A71   -31
     5 74:4C:A1:70:CE:F7 E8:28:C1:DC:FF:F2 <NA>                      -71
     6 BC:F1:71:D4:DB:04 (not associated)  <NA>                      -45
     7 4C:44:5B:14:76:E3 E8:28:C1:DD:04:52 <NA>                       -1
     8 A0:E7:0B:AE:D5:44 0A:C5:E1:DB:17:7B AndroidAP177B             -37
     9 00:95:69:E7:7F:35 (not associated)  nvripcsuite               -69
    10 00:95:69:E7:7C:ED (not associated)  nvripcsuite               -55
    # ℹ 207 more rows
…
      avg_power = round(avg_power, 1)
    ) %>%
    select(
      `Probed ESSIDs`, 
      device_count, 
      first_time_str, 
      last_time_str, 
      observation_period, 
      avg_power, 
      total_packets
    )
  result}
```

    # A tibble: 147 × 7
       `Probed ESSIDs`  device_count first_time_str last_time_str observation_period
       <chr>                   <int> <chr>          <chr>                      <dbl>
     1 GIVC                      284 09:13          11:56                       2.72
     2 IT2 Wireless              229 09:13          11:52                       2.66
     3 Gardenpasanauri           115 09:13          09:53                       0.67
     4 region                    111 09:45          10:18                       0.54
     5 Galaxy A31CAED             87 09:43          10:00                       0.3 
     6 Avenue611                  72 09:41          10:00                       0.33
     7 iPhone (Максим)            72 09:50          10:00                       0.17
     8 HONOR 30                   71 09:41          10:00                       0.33
     9 iPhone (Дима )             68 09:51          10:00                       0.17
    10 AndroidShare_15…           51 10:33          11:55                       1.37
    # ℹ 137 more rows
    # ℹ 2 more variables: avg_power <dbl>, total_packets <int>
…
